{
    "key": "group_57b32fe308ec5",
    "title": "Service Links (Home Page)",
    "fields": [
        {
            "key": "field_57b32ff633c53",
            "label": "Internet",
            "name": "",
            "type": "tab",
            "instructions": "",
            "required": 0,
            "conditional_logic": 0,
            "wrapper": {
                "width": "",
                "class": "",
                "id": ""
            },
            "placement": "top",
            "endpoint": 0
        },
        {
            "key": "field_57b330327cb97",
            "label": "Internet Services",
            "name": "internet_services",
            "type": "repeater",
            "instructions": "",
            "required": 0,
            "conditional_logic": 0,
            "wrapper": {
                "width": "",
                "class": "",
                "id": ""
            },
            "collapsed": "",
            "min": 0,
            "max": 0,
            "layout": "table",
            "button_label": "Add Service",
            "sub_fields": [
                {
                    "key": "field_57b330497cb98",
                    "label": "Service Name",
                    "name": "name",
                    "type": "text",
                    "instructions": "",
                    "required": "",
                    "conditional_logic": "",
                    "wrapper": {
                        "width": "",
                        "class": "",
                        "id": ""
                    },
                    "default_value": "",
                    "placeholder": "",
                    "prepend": "",
                    "append": "",
                    "maxlength": "",
                    "readonly": 0,
                    "disabled": 0
                },
                {
                    "key": "field_57b330577cb99",
                    "label": "Link",
                    "name": "link",
                    "type": "url",
                    "instructions": "Leave this blank to omit the link from the service.",
                    "required": "",
                    "conditional_logic": "",
                    "wrapper": {
                        "width": "",
                        "class": "",
                        "id": ""
                    },
                    "default_value": "",
                    "placeholder": ""
                }
            ]
        },
        {
            "key": "field_57b3301f33c54",
            "label": "Cable & Video",
            "name": "",
            "type": "tab",
            "instructions": "",
            "required": 0,
            "conditional_logic": 0,
            "wrapper": {
                "width": "",
                "class": "",
                "id": ""
            },
            "placement": "top",
            "endpoint": 0
        },
        {
            "key": "field_57b330a37cb9a",
            "label": "Cable & Video Services",
            "name": "cable_services",
            "type": "repeater",
            "instructions": "",
            "required": 0,
            "conditional_logic": 0,
            "wrapper": {
                "width": "",
                "class": "",
                "id": ""
            },
            "collapsed": "",
            "min": 0,
            "max": 0,
            "layout": "table",
            "button_label": "Add Service",
            "sub_fields": [
                {
                    "key": "field_57b330a37cb9b",
                    "label": "Service Name",
                    "name": "name",
                    "type": "text",
                    "instructions": "",
                    "required": "",
                    "conditional_logic": "",
                    "wrapper": {
                        "width": "",
                        "class": "",
                        "id": ""
                    },
                    "default_value": "",
                    "placeholder": "",
                    "prepend": "",
                    "append": "",
                    "maxlength": "",
                    "readonly": 0,
                    "disabled": 0
                },
                {
                    "key": "field_57b330a37cb9c",
                    "label": "Link",
                    "name": "link",
                    "type": "url",
                    "instructions": "Leave this blank to omit the link from the service.",
                    "required": "",
                    "conditional_logic": "",
                    "wrapper": {
                        "width": "",
                        "class": "",
                        "id": ""
                    },
                    "default_value": "",
                    "placeholder": ""
                }
            ]
        },
        {
            "key": "field_57b330267cb95",
            "label": "Telephone",
            "name": "",
            "type": "tab",
            "instructions": "",
            "required": 0,
            "conditional_logic": 0,
            "wrapper": {
                "width": "",
                "class": "",
                "id": ""
            },
            "placement": "top",
            "endpoint": 0
        },
        {
            "key": "field_57b330b67cb9d",
            "label": "Telephone Services",
            "name": "telephone_services",
            "type": "repeater",
            "instructions": "",
            "required": 0,
            "conditional_logic": 0,
            "wrapper": {
                "width": "",
                "class": "",
                "id": ""
            },
            "collapsed": "",
            "min": 0,
            "max": 0,
            "layout": "table",
            "button_label": "Add Service",
            "sub_fields": [
                {
                    "key": "field_57b330b77cb9e",
                    "label": "Service Name",
                    "name": "name",
                    "type": "text",
                    "instructions": "",
                    "required": "",
                    "conditional_logic": "",
                    "wrapper": {
                        "width": "",
                        "class": "",
                        "id": ""
                    },
                    "default_value": "",
                    "placeholder": "",
                    "prepend": "",
                    "append": "",
                    "maxlength": "",
                    "readonly": 0,
                    "disabled": 0
                },
                {
                    "key": "field_57b330b77cb9f",
                    "label": "Link",
                    "name": "link",
                    "type": "url",
                    "instructions": "Leave this blank to omit the link from the service.",
                    "required": "",
                    "conditional_logic": "",
                    "wrapper": {
                        "width": "",
                        "class": "",
                        "id": ""
                    },
                    "default_value": "",
                    "placeholder": ""
                }
            ]
        },
        {
            "key": "field_57b3302c7cb96",
            "label": "Business",
            "name": "",
            "type": "tab",
            "instructions": "",
            "required": 0,
            "conditional_logic": 0,
            "wrapper": {
                "width": "",
                "class": "",
                "id": ""
            },
            "placement": "top",
            "endpoint": 0
        },
        {
            "key": "field_57b330c37cba0",
            "label": "Business Services",
            "name": "business_services",
            "type": "repeater",
            "instructions": "",
            "required": 0,
            "conditional_logic": 0,
            "wrapper": {
                "width": "",
                "class": "",
                "id": ""
            },
            "collapsed": "",
            "min": 0,
            "max": 0,
            "layout": "table",
            "button_label": "Add Service",
            "sub_fields": [
                {
                    "key": "field_57b330c37cba1",
                    "label": "Service Name",
                    "name": "name",
                    "type": "text",
                    "instructions": "",
                    "required": 1,
                    "conditional_logic": 0,
                    "wrapper": {
                        "width": "",
                        "class": "",
                        "id": ""
                    },
                    "default_value": "",
                    "placeholder": "",
                    "prepend": "",
                    "append": "",
                    "maxlength": "",
                    "readonly": 0,
                    "disabled": 0
                },
                {
                    "key": "field_57b330c37cba2",
                    "label": "Link",
                    "name": "link",
                    "type": "url",
                    "instructions": "Leave this blank to omit the link from the service.",
                    "required": 0,
                    "conditional_logic": 0,
                    "wrapper": {
                        "width": "",
                        "class": "",
                        "id": ""
                    },
                    "default_value": "",
                    "placeholder": ""
                }
            ]
        }
    ],
    "location": [
        [
            {
                "param": "page_type",
                "operator": "==",
                "value": "front_page"
            }
        ]
    ],
    "menu_order": 0,
    "position": "normal",
    "style": "default",
    "label_placement": "top",
    "instruction_placement": "label",
    "hide_on_screen": [
        "the_content"
    ],
    "active": 1,
    "description": "",
    "modified": 1545408332
}