{
    "key": "group_57321511cfc67",
    "title": "City Included Services",
    "fields": [
        {
            "key": "field_57a0f5c520c03",
            "label": "Bundles",
            "name": "",
            "type": "tab",
            "instructions": "",
            "required": 0,
            "conditional_logic": 0,
            "wrapper": {
                "width": "",
                "class": "",
                "id": ""
            },
            "placement": "top",
            "endpoint": 0
        },
        {
            "key": "field_57321518b04bc",
            "label": "Available Bundles",
            "name": "bundles_repeater",
            "type": "repeater",
            "instructions": "",
            "required": 0,
            "conditional_logic": 0,
            "wrapper": {
                "width": "",
                "class": "",
                "id": ""
            },
            "collapsed": "",
            "min": 0,
            "max": 0,
            "layout": "row",
            "button_label": "Add Bundle",
            "sub_fields": [
                {
                    "key": "field_57321568b04bd",
                    "label": "Bundle",
                    "name": "bundle_id",
                    "type": "select",
                    "instructions": "",
                    "required": 1,
                    "conditional_logic": 0,
                    "wrapper": {
                        "width": "",
                        "class": "",
                        "id": ""
                    },
                    "choices": {
                        "bundle_1469706908": "Residential - $146.55",
                        "bundle_1469708452": "Residential - $110.55",
                        "bundle_1469708605": "Residential - $49.95",
                        "disabled_1470674850": "Randall Formoso - $150.20",
                        "disabled_1470670146": "Jamestown Glen Elder Cawker City - $150.20",
                        "disabled_1470679187": "Business Super Bundle Plus - $160.55",
                        "disabled_1470679616": "Business Bundle Plus Cable - $115.55",
                        "disabled_1470679722": "Business Bundle Plus Net - $64.95",
                        "disabled_1470681815": "Business Super Bundle Plus - $160.55",
                        "disabled_1470681966": "Business Bundle Plus Cable - $115.55",
                        "disabled_1470682069": "Business Bundle Plus Net - $64.95",
                        "disabled_1543662285": "TV Now Extreme (test) - $180.00"
                    },
                    "default_value": [],
                    "allow_null": 0,
                    "multiple": 0,
                    "ui": 0,
                    "ajax": 0,
                    "placeholder": "",
                    "disabled": 0,
                    "readonly": 0,
                    "return_format": "value"
                },
                {
                    "key": "field_5c1d20149b23f",
                    "label": "Coming Soon",
                    "name": "coming_soon",
                    "type": "true_false",
                    "instructions": "Set to \"True\" if this bundle is coming soon.",
                    "required": 0,
                    "conditional_logic": 0,
                    "wrapper": {
                        "width": "",
                        "class": "",
                        "id": ""
                    },
                    "message": "",
                    "default_value": 0,
                    "ui": 1,
                    "ui_on_text": "True",
                    "ui_off_text": "False"
                }
            ]
        },
        {
            "key": "field_57a0f5d820c04",
            "label": "Internet",
            "name": "",
            "type": "tab",
            "instructions": "",
            "required": 0,
            "conditional_logic": 0,
            "wrapper": {
                "width": "",
                "class": "",
                "id": ""
            },
            "placement": "top",
            "endpoint": 0
        },
        {
            "key": "field_57a0f64920c0b",
            "label": "Internet Options",
            "name": "internet_options",
            "type": "repeater",
            "instructions": "",
            "required": 0,
            "conditional_logic": 0,
            "wrapper": {
                "width": "",
                "class": "",
                "id": ""
            },
            "collapsed": "",
            "min": 0,
            "max": 0,
            "layout": "table",
            "button_label": "Add Option",
            "sub_fields": [
                {
                    "key": "field_57a0f64920c0c",
                    "label": "Option",
                    "name": "option_id",
                    "type": "select",
                    "instructions": "",
                    "required": 1,
                    "conditional_logic": 0,
                    "wrapper": {
                        "width": "",
                        "class": "",
                        "id": ""
                    },
                    "choices": {
                        "disabled_1470116675": "Standard Level - $39.95",
                        "disabled_1470116693": "Featured: Supreme Level - $59.95",
                        "disabled_1470116710": "Extreme Level - $79.95",
                        "disabled_1470679915": "Business Standard Level - $49.95",
                        "disabled_1470679980": "Business Supreme Level - $69.95",
                        "disabled_1470680013": "Featured: Business Extreme Level - $89.95"
                    },
                    "default_value": [],
                    "allow_null": 0,
                    "multiple": 0,
                    "ui": 0,
                    "ajax": 0,
                    "placeholder": "",
                    "disabled": 0,
                    "readonly": 0,
                    "return_format": "value"
                }
            ]
        },
        {
            "key": "field_57a0f5e120c05",
            "label": "Cable",
            "name": "",
            "type": "tab",
            "instructions": "",
            "required": 0,
            "conditional_logic": 0,
            "wrapper": {
                "width": "",
                "class": "",
                "id": ""
            },
            "placement": "top",
            "endpoint": 0
        },
        {
            "key": "field_57a0f64420c09",
            "label": "Cable Options",
            "name": "cable_options",
            "type": "repeater",
            "instructions": "",
            "required": 0,
            "conditional_logic": 0,
            "wrapper": {
                "width": "",
                "class": "",
                "id": ""
            },
            "collapsed": "",
            "min": 0,
            "max": 0,
            "layout": "table",
            "button_label": "Add Option",
            "sub_fields": [
                {
                    "key": "field_57a0f64420c0a",
                    "label": "Option",
                    "name": "option_id",
                    "type": "select",
                    "instructions": "",
                    "required": "",
                    "conditional_logic": "",
                    "wrapper": {
                        "width": "",
                        "class": "",
                        "id": ""
                    },
                    "choices": {
                        "disabled_1470116783": "Limited Basic - $40.95",
                        "disabled_1470116822": "Featured: Expanded Basic - $96.50"
                    },
                    "default_value": [],
                    "allow_null": "",
                    "multiple": "",
                    "ui": "",
                    "ajax": "",
                    "placeholder": "",
                    "disabled": 0,
                    "readonly": 0,
                    "return_format": "value"
                }
            ]
        },
        {
            "key": "field_57a0f5e920c06",
            "label": "Telephone",
            "name": "",
            "type": "tab",
            "instructions": "",
            "required": 0,
            "conditional_logic": 0,
            "wrapper": {
                "width": "",
                "class": "",
                "id": ""
            },
            "placement": "top",
            "endpoint": 0
        },
        {
            "key": "field_57a0f5f320c07",
            "label": "Telephone Options",
            "name": "phone_options",
            "type": "repeater",
            "instructions": "",
            "required": 0,
            "conditional_logic": 0,
            "wrapper": {
                "width": "",
                "class": "",
                "id": ""
            },
            "collapsed": "",
            "min": 0,
            "max": 0,
            "layout": "table",
            "button_label": "Add Option",
            "sub_fields": [
                {
                    "key": "field_57a0f60020c08",
                    "label": "Option",
                    "name": "option_id",
                    "type": "select",
                    "instructions": "",
                    "required": "",
                    "conditional_logic": "",
                    "wrapper": {
                        "width": "",
                        "class": "",
                        "id": ""
                    },
                    "choices": {
                        "disabled_1470116879": "Featured: Single Phone Line - $16.95",
                        "disabled_1470670549": "Single Phone Line - $18.65",
                        "disabled_1470680046": "Business Single Phone Line - $21.95",
                        "disabled_1470680706": "Business Single Phone Line - $20.25"
                    },
                    "default_value": [],
                    "allow_null": "",
                    "multiple": "",
                    "ui": "",
                    "ajax": "",
                    "placeholder": "",
                    "disabled": 0,
                    "readonly": 0,
                    "return_format": "value"
                }
            ]
        },
        {
            "key": "field_5c027028aede1",
            "label": "TV Now",
            "name": "",
            "type": "tab",
            "instructions": "",
            "required": 0,
            "conditional_logic": 0,
            "wrapper": {
                "width": "",
                "class": "",
                "id": ""
            },
            "placement": "top",
            "endpoint": 0
        },
        {
            "key": "field_5c0274588a278",
            "label": "TV Now Coming Soon",
            "name": "tv_now_coming_soon",
            "type": "true_false",
            "instructions": "If TV Now is not currently available for this city, set this to \"yes\"",
            "required": 0,
            "conditional_logic": 0,
            "wrapper": {
                "width": "",
                "class": "",
                "id": ""
            },
            "message": "",
            "default_value": 0,
            "ui": 1,
            "ui_on_text": "",
            "ui_off_text": ""
        },
        {
            "key": "field_5c027033aede2",
            "label": "TV Now Options",
            "name": "tv_now_options",
            "type": "repeater",
            "instructions": "",
            "required": 0,
            "conditional_logic": 0,
            "wrapper": {
                "width": "",
                "class": "",
                "id": ""
            },
            "collapsed": "",
            "min": 0,
            "max": 0,
            "layout": "table",
            "button_label": "Add Option",
            "sub_fields": [
                {
                    "key": "field_5c027033aede3",
                    "label": "Option",
                    "name": "option_id",
                    "type": "select",
                    "instructions": "",
                    "required": 0,
                    "conditional_logic": 0,
                    "wrapper": {
                        "width": "",
                        "class": "",
                        "id": ""
                    },
                    "choices": {
                        "disabled_1543663342": "Limited Basic - $30.00",
                        "disabled_1543663388": "Featured: Expanded Basic - $42.00",
                        "disabled_1543663420": "Out-of-Market Package - $72.00",
                        "disabled_1543664992": "Additional Entertainment - $14.25+"
                    },
                    "default_value": [],
                    "allow_null": 0,
                    "multiple": 0,
                    "ui": 0,
                    "return_format": "value",
                    "ajax": 0,
                    "placeholder": ""
                }
            ]
        }
    ],
    "location": [
        [
            {
                "param": "post_type",
                "operator": "==",
                "value": "residential_city"
            }
        ],
        [
            {
                "param": "post_type",
                "operator": "==",
                "value": "business_city"
            }
        ]
    ],
    "menu_order": 0,
    "position": "normal",
    "style": "default",
    "label_placement": "top",
    "instruction_placement": "label",
    "hide_on_screen": [
        "the_content"
    ],
    "active": 1,
    "description": "",
    "modified": 1545415712
}